…
Al igual que el módulo 100, hay que limpiar la base para realizar el
cálculo de indicadores socioeconómicos. Nos quedamos únicamente con las
personas residentes del hogar que participaron de la encuesta.

``` r
mod500%>%
  #Creamos la variable residente
  mutate(residente=if_else((p204==1 & p205==2), 1, 
                           if_else((p206==1 & p204==2) , 1,
                                   0)))%>%
  #Nos quedamos con los residentes para la estimación de indicadores
  filter(residente==1)
```

    ## # A tibble: 90,677 x 1,356
    ##    aÑo   mes   nconglome conglome vivienda hogar codperso ubigeo dominio estrato
    ##    <chr> <chr> <chr>     <chr>    <chr>    <chr> <chr>    <chr>  <dbl+l> <dbl+l>
    ##  1 2019  10    007060    005001   007      11    01       010101 4 [sie~ 4 [ de~
    ##  2 2019  10    007060    005001   007      11    02       010101 4 [sie~ 4 [ de~
    ##  3 2019  10    007060    005001   017      11    01       010101 4 [sie~ 4 [ de~
    ##  4 2019  10    007060    005001   017      11    02       010101 4 [sie~ 4 [ de~
    ##  5 2019  10    007060    005001   017      11    03       010101 4 [sie~ 4 [ de~
    ##  6 2019  10    007060    005001   017      11    04       010101 4 [sie~ 4 [ de~
    ##  7 2019  10    007060    005001   017      11    05       010101 4 [sie~ 4 [ de~
    ##  8 2019  10    007060    005001   040      11    01       010101 4 [sie~ 4 [ de~
    ##  9 2019  10    007060    005001   040      11    02       010101 4 [sie~ 4 [ de~
    ## 10 2019  10    007060    005001   040      11    03       010101 4 [sie~ 4 [ de~
    ## # ... with 90,667 more rows, and 1,346 more variables: codinfor <chr>,
    ## #   p500a <chr>, p500b <chr>, p500b1 <dbl>, p500c <chr>, p500d <chr>,
    ## #   p500d1 <dbl>, p500n <chr>, p500i <chr>, p501 <dbl+lbl>, p502 <dbl+lbl>,
    ## #   p503 <dbl+lbl>, p504 <dbl+lbl>, p5041 <dbl+lbl>, p5042 <dbl+lbl>,
    ## #   p5043 <dbl+lbl>, p5044 <dbl+lbl>, p5045 <dbl+lbl>, p5046 <dbl+lbl>,
    ## #   p5047 <dbl+lbl>, p5048 <dbl+lbl>, p5049 <dbl+lbl>, p50410 <dbl+lbl>,
    ## #   p50411 <dbl+lbl>, p505 <dbl+lbl>, p505r4 <dbl+lbl>, p505b <dbl>, ...
…
