…
``` r
bono600%>%
  group_by(EDAD)%>%
  count(EDAD)
```

    ## # A tibble: 121 x 2
    ## # Groups:   EDAD [121]
    ##     EDAD      n
    ##    <dbl>  <int>
    ##  1     0   4605
    ##  2     1 132748
    ##  3     2 152203
    ##  4     3 159331
    ##  5     4 163913
    ##  6     5 167209
    ##  7     6 174201
    ##  8     7 173646
    ##  9     8 165932
    ## 10     9 163185
    ## # ... with 111 more rows
…
